C:\Users\flo\Desktop\farmacia\farmacia\farmachia\src\main\java\objetos\Capsulas.java
C:\Users\flo\Desktop\farmacia\farmacia\farmachia\src\main\java\objetos\Liquidos.java
C:\Users\flo\Desktop\farmacia\farmacia\farmachia\src\main\java\objetos\Ingrediente.java
C:\Users\flo\Desktop\farmacia\farmacia\farmachia\src\main\java\com\mycompany\farmachia\Ejecutable.java
C:\Users\flo\Desktop\farmacia\farmacia\farmachia\src\main\java\objetos\Conexion_BBDD.java
C:\Users\flo\Desktop\farmacia\farmacia\farmachia\src\main\java\objetos\IngredienteActions.java
C:\Users\flo\Desktop\farmacia\farmacia\farmachia\src\main\java\objetos\Menu.java
C:\Users\flo\Desktop\farmacia\farmacia\farmachia\src\main\java\objetos\CrearIngrediente.java
C:\Users\flo\Desktop\farmacia\farmacia\farmachia\src\main\java\objetos\FondoPanel.java
C:\Users\flo\Desktop\farmacia\farmacia\farmachia\src\main\java\objetos\Cremas.java
C:\Users\flo\Desktop\farmacia\farmacia\farmachia\src\main\java\objetos\ResumenTotal.java
C:\Users\flo\Desktop\farmacia\farmacia\farmachia\src\main\java\objetos\PrincipioActivo.java
